[
  {
    "name": "Oh my deer",
    "price": "$14.99",
    "path": "./Photo/Image@2X.png",
    "number": 0,
    "color": "black"
  },
  {
    "color": "black",
    "name": "Awaken the hero",
    "number": 1,
    "path": "./Photo/Image@1X.png",
    "price": "$17.59"
  },
  {
    "name": "Bad dreams",
    "price": "$8.99",
    "path": "./Photo/Image@7X.png",
    "number": 2,
    "color": "black"
  },
  {
    "name": "Caribou",
    "price": "$22.99",
    "path": "./Photo/Image@6X.png",
    "number": 3,
    "color": "black"
  },
  {
    "name": "Aqualung",
    "price": "$8.99",
    "path": "./Photo/Image@3X.png",
    "number": 4,
    "color": "black"
  },
  {
    "name": "Jim Fasset",
    "price": "$8.99",
    "path": "./Photo/Image@4X.png",
    "number": 5,
    "color": "black"
  },
  {
    "name": "Bad dreams",
    "price": "$8.59",
    "path": "./Photo/Image@7X.png",
    "number": 6,
    "color": "black"
  },
  {
    "name": "Ravenna",
    "price": "$8.99",
    "path": "./Photo/Image@5X.png",
    "number": 7,
    "color": "black"
  },
  {
    "name": "Ravenna",
    "price": "$22.99",
    "path": "./Photo/Image@5X.png",
    "number": 8,
    "color": "black"
  },
  {
    "name": "Ravenna",
    "price": "$8.99",
    "path": "./Photo/Image@5X.png",
    "number": 9,
    "color": "black"
  }
]
